[
  {
    "name": "Principal / Vice-Principal Talk",
    "location": "Auditorium",
    "important": true,
    "times": [
      ["0900", "0930"],
      ["1100", "1130"],
      ["1300", "1330"],
      ["1500", "1530"]
    ]
  },
  {
    "name": "Student Panel",
    "location": "Auditorium",
    "important": true,
    "times": [
      ["1000", "1020"],
      ["1200", "1220"],
      ["1400", "1420"]
    ]
  },
  {
    "name": "Chemistry Lab Session",
    "location": "Chemistry Lab 2",
    "important": false,
    "times": [
      ["1030", "1130"],
      ["1230", "1330"],
      ["1400", "1500"],
      ["1530", "1630"]
    ]
  },
  {
    "name": "Physics Lab Session",
    "location": "Biology Lab 2",
    "important": false,
    "times": [
      ["1030", "1130"],
      ["1230", "1330"],
      ["1400", "1500"],
      ["1530", "1630"]
    ]
  },
  {
    "name": "Biology Lab Session",
    "location": "Biology Lab 1",
    "important": false,
    "times": [
      ["1030", "1130"],
      ["1230", "1330"],
      ["1400", "1500"],
      ["1530", "1630"]
    ]
  },
  {
    "name": "Biotechnology Lab Session",
    "location": "Biotech Lab 1",
    "important": false,
    "times": [
      ["1030", "1130"],
      ["1230", "1330"],
      ["1400", "1500"],
      ["1530", "1630"]
    ]
  },
  {
    "name": "Electronics Lab Session",
    "location": "Engineering Lab",
    "important": false,
    "times": [
      ["1030", "1130"],
      ["1230", "1330"],
      ["1400", "1500"],
      ["1530", "1630"]
    ]
  },
  {
    "name": "SSTED Talks",
    "location": "SST Inc. HQ",
    "important": false,
    "times": [
      ["1045", "1130"],
      ["1250", "1330"],
      ["1445", "1530"]
    ]
  },
  {
    "name": "Everyday Innovations",
    "location": "Maker Lab",
    "important": false,
    "times": [
      ["1030", "1130"],
      ["1230", "1330"]
    ]
  }
]