[
  {
    "category": "CCA Showcases",
    "booths": [
      {
        "name": "Astronomy",
        "location": "Blk A Atrium, Foyer"
      },
      {
        "name": "Athletics (Track)",
        "location": "Blk A Atrium, Foyer"
      },
      {
        "name": "Basketball",
        "location": "Blk A Atrium, Foyer"
      },
      {
        "name": "Fencing",
        "location": "Blk A Atrium, Foyer"
      },
      {
        "name": "Media Club",
        "location": "Blk A Atrium, Foyer"
      },
      {
        "name": "Showchoir",
        "location": "Blk A Atrium, Foyer"
      },
      {
        "name": "Scouts",
        "location": "Blk A Atrium, Foyer"
      },
      {
        "name": "Robotics",
        "location": "Blk C Lvl 3, Robotics@APEX"
      },
      {
        "name": "SYFC",
        "location": "Blk A Atrium, Foyer"
      },
      {
        "name": "Student Life Gallery",
        "location": "Blk A Atrium, Foyer"
      }
    ]
  },
  {
    "category": "Subject Showcases",
    "booths": [
      {
        "name": "Chemistry",
        "location": "Blk C Lvl 1, Chem Lab 2"
      },
      {
        "name": "Physics",
        "location": "Blk C Lvl 1, Bio Lab 2"
      },
      {
        "name": "Biology",
        "location": "Blk C Lvl 1, Bio Lab 1"
      },
      {
        "name": "Biotechnology",
        "location": "Blk C Lvl 1, Biotech Lab 1"
      },
      {
        "name": "Electronics",
        "location": "Blk C Lvl 2, Engineering Lab"
      },
      {
        "name": "Science TDP",
        "location": "Blk C Lvl 2, Physics Lab 1"
      }
    ]
  },
  {
    "category": "Academic Showcases",
    "booths": [
      {
        "name": "ACE",
        "location": "Blk C Lvl 2, Outside Maker Lab"
      },
      {
        "name": "English",
        "location": "Blk C Lvl 2, Outside Maker Lab"
      },
      {
        "name": "IH",
        "location": "Blk C Lvl 2, Outside Maker Lab"
      },
      {
        "name": "Mathematics",
        "location": "Blk C Lvl 2, Outside Maker Lab"
      },
      {
        "name": "Chinese",
        "location": "Blk C Lvl 2, Outside Maker Lab"
      },
      {
        "name": "Malay",
        "location": "Blk C Lvl 2, Outside Maker Lab"
      },
      {
        "name": "Tamil",
        "location": "Blk C Lvl 2, Outside Maker Lab"
      },
      {
        "name": "S&W",
        "location": "Blk C Lvl 2, Outside Maker Lab"
      }
    ]
  }
]